%YAML 1.1
%TAG !u! tag:unity3d.com,2011:
--- !u!1001 &766727378884071329
PrefabInstance:
  m_ObjectHideFlags: 0
  serializedVersion: 2
  m_Modification:
    m_TransformParent: {fileID: 0}
    m_Modifications:
    - target: {fileID: -4216859302048453862, guid: 9db2c14a9ee08374fbdab6fe74b2fd5f,
        type: 3}
      propertyPath: m_LocalPosition.x
      value: -100.9
      objectReference: {fileID: 0}
    - target: {fileID: -4216859302048453862, guid: 9db2c14a9ee08374fbdab6fe74b2fd5f,
        type: 3}
      propertyPath: m_LocalPosition.y
      value: 0.002243
      objectReference: {fileID: 0}
    - target: {fileID: -4216859302048453862, guid: 9db2c14a9ee08374fbdab6fe74b2fd5f,
        type: 3}
      propertyPath: m_LocalPosition.z
      value: -0.077667
      objectReference: {fileID: 0}
    - target: {fileID: -4216859302048453862, guid: 9db2c14a9ee08374fbdab6fe74b2fd5f,
        type: 3}
      propertyPath: m_LocalRotation.x
      value: 0
      objectReference: {fileID: 0}
    - target: {fileID: -4216859302048453862, guid: 9db2c14a9ee08374fbdab6fe74b2fd5f,
        type: 3}
      propertyPath: m_LocalRotation.y
      value: -0
      objectReference: {fileID: 0}
    - target: {fileID: -4216859302048453862, guid: 9db2c14a9ee08374fbdab6fe74b2fd5f,
        type: 3}
      propertyPath: m_LocalRotation.z
      value: -0
      objectReference: {fileID: 0}
    - target: {fileID: -4216859302048453862, guid: 9db2c14a9ee08374fbdab6fe74b2fd5f,
        type: 3}
      propertyPath: m_LocalRotation.w
      value: 1
      objectReference: {fileID: 0}
    - target: {fileID: -4216859302048453862, guid: 9db2c14a9ee08374fbdab6fe74b2fd5f,
        type: 3}
      propertyPath: m_RootOrder
      value: 0
      objectReference: {fileID: 0}
    - target: {fileID: -4216859302048453862, guid: 9db2c14a9ee08374fbdab6fe74b2fd5f,
        type: 3}
      propertyPath: m_LocalEulerAnglesHint.x
      value: 0
      objectReference: {fileID: 0}
    - target: {fileID: -4216859302048453862, guid: 9db2c14a9ee08374fbdab6fe74b2fd5f,
        type: 3}
      propertyPath: m_LocalEulerAnglesHint.y
      value: 0
      objectReference: {fileID: 0}
    - target: {fileID: -4216859302048453862, guid: 9db2c14a9ee08374fbdab6fe74b2fd5f,
        type: 3}
      propertyPath: m_LocalEulerAnglesHint.z
      value: 0
      objectReference: {fileID: 0}
    - target: {fileID: -4216859302048453862, guid: 9db2c14a9ee08374fbdab6fe74b2fd5f,
        type: 3}
      propertyPath: m_LocalScale.x
      value: 1
      objectReference: {fileID: 0}
    - target: {fileID: -4216859302048453862, guid: 9db2c14a9ee08374fbdab6fe74b2fd5f,
        type: 3}
      propertyPath: m_LocalScale.y
      value: 1
      objectReference: {fileID: 0}
    - target: {fileID: -4216859302048453862, guid: 9db2c14a9ee08374fbdab6fe74b2fd5f,
        type: 3}
      propertyPath: m_LocalScale.z
      value: 1
      objectReference: {fileID: 0}
    - target: {fileID: -927199367670048503, guid: 9db2c14a9ee08374fbdab6fe74b2fd5f,
        type: 3}
      propertyPath: m_Name
      value: Valve
      objectReference: {fileID: 0}
    m_RemovedComponents: []
  m_SourcePrefab: {fileID: 100100000, guid: 9db2c14a9ee08374fbdab6fe74b2fd5f, type: 3}
