# This file uses meters as units for non-parametric coordinates.

mtllib Asteroid_mid.mtl
g default
v -3.771538 62.843761 -31.512207
v -54.072720 15.338642 78.095947
v 44.381580 62.870285 91.621674
v -18.480490 64.542313 -31.859802
v -49.086220 -67.857368 -4.988098
v -4.636201 30.111866 -82.508575
v 21.805454 79.559624 59.540527
v -37.928585 61.963020 -32.204285
v 26.692232 -95.133362 34.618225
v 10.876549 77.974144 -9.062378
v 20.843462 -87.078064 93.179230
v 2.548089 73.527054 -23.571228
v 69.480705 -15.267819 101.604065
v 66.175217 42.314770 77.009277
v -15.634944 80.485847 -5.832764
v 71.115265 52.418453 34.064758
v 77.900551 6.826410 -21.763245
v 7.766958 62.126305 -31.897614
v 1.959275 57.964386 -50.763275
v -10.422412 57.763489 -42.138550
v -9.634842 69.989838 -23.492340
v -40.164387 17.377485 87.931488
v -47.883137 36.869270 77.579010
v -64.283180 27.871946 66.223145
v -55.186447 0.338382 77.654449
v -33.665615 -3.871405 91.141296
v -72.154259 10.473022 59.498657
v 30.338387 61.799583 90.403839
v 33.731152 47.615768 94.147339
v 50.271965 50.252422 89.219330
v 59.697479 55.557186 80.470276
v 48.156868 70.014915 83.890015
v 30.808102 71.757332 83.113068
v -25.807632 53.940655 -56.187622
v -59.907940 -58.351933 -5.210144
v -51.594700 -60.139542 -26.105957
v -39.693726 -71.792732 -17.149048
v -46.994236 -75.504753 7.385162
v -59.997654 -60.155464 15.695313
v -32.645649 -85.226341 -3.816559
v 1.538483 17.856379 -90.240753
v -20.454906 11.987579 -83.846100
v -19.261791 30.136990 -78.076752
v 3.961618 45.093403 -75.358429
v 16.963188 36.781654 -79.506104
v 33.402672 77.674393 59.587341
v 28.033575 82.671852 42.065155
v 12.435475 85.119774 48.212769
v 18.175669 76.594353 68.764984
v 33.387131 74.912971 72.447418
v 1.001759 81.104233 59.752869
v -54.364784 37.134678 -41.669800
v -68.544243 36.876366 -16.987823
v -54.811943 60.673500 -5.756866
v -35.684097 73.501823 16.325256
v 24.832508 -94.285332 19.027863
v 44.772594 -89.257378 18.915039
v 40.200684 -94.836098 40.943024
v 26.647394 -95.555305 57.834778
v 13.806735 -97.048851 43.442047
v 4.767423 -93.465874 25.355530
v 33.416370 69.911804 -6.980743
v 32.567974 64.422859 -31.849854
v 18.017670 69.722374 -33.389221
v 31.886234 -86.973381 86.723419
v 37.183353 -81.063156 93.398071
v 20.492170 -82.863449 100.505768
v 5.262893 -84.679108 98.150269
v 11.310151 -88.852028 88.778442
v 23.148315 -91.621872 79.916687
v 56.418358 -18.232363 111.941895
v 58.256405 -39.030354 106.478455
v 73.376526 -28.239614 93.952393
v 72.057373 1.167060 89.944702
v 57.281033 5.285513 99.870819
v 76.384720 -10.692032 75.708221
v 63.022434 -10.868203 -47.570496
v 62.545963 6.649906 -50.805267
v 71.894272 -18.406349 -30.925629
v 57.715408 30.227118 86.768494
v 76.440872 21.812952 74.331909
v 77.202393 38.543018 61.155060
v 61.133312 57.046093 67.934540
v 77.551498 45.989292 44.970062
v 84.241722 30.317688 27.462128
v 73.057564 45.411114 19.265320
v 57.848267 62.450470 16.373596
v 61.542145 66.078606 36.932587
v 62.290085 61.638348 55.080505
v 84.639801 -15.978065 1.942413
v 81.315895 -34.165810 -12.628784
v 78.488655 17.507584 6.637238
v 86.770538 0.581375 19.530396
v 86.132133 18.417547 40.294647
v 85.846962 6.356668 57.454651
v 88.342148 -13.023329 39.211151
v 86.490173 -32.336273 23.046051
v 80.855591 -26.957729 59.506348
v 85.381599 -45.681309 45.703339
v 83.780685 -62.638290 34.921631
v 84.952232 -50.128056 9.466003
v 77.479240 -75.809021 27.665192
v 76.049171 -63.694134 0.752594
v 68.514786 -50.062965 -22.390167
v 60.979420 -75.319038 -4.447479
v 52.566067 -65.827965 -29.507690
v 40.246468 -51.214111 -48.191833
v 59.458405 -36.143784 -41.477264
v 31.492615 -36.788784 -67.707489
v 51.417545 -22.094809 -58.711761
v 21.506956 -19.342098 -79.375244
v 44.736259 -5.205820 -70.705505
v 14.296255 -5.759427 -88.052399
v 37.986088 11.271723 -78.313995
v 54.726284 26.295864 -55.043518
v 62.174755 31.932579 -25.802490
v 29.436558 26.020302 -81.999878
v 42.384930 42.349468 -57.666779
v 50.850143 53.253792 -30.656342
v 54.515820 58.537148 -5.728577
v 70.214676 38.932114 -1.745178
v 26.866579 52.299366 -57.299835
v 13.982572 59.245346 -56.899078
v -10.674159 50.284061 -69.214050
v -40.215263 36.022392 -66.517059
v -44.262722 13.375916 -70.394104
v -64.423622 13.410773 -49.350739
v -42.414558 -5.475226 -73.418976
v -63.638901 -9.974613 -54.100403
v -73.938431 -14.780699 -27.987732
v -74.841263 9.651360 -23.233154
v -84.855835 -18.746090 -1.889679
v -82.963608 5.017827 2.550171
v -76.042252 31.099415 9.144196
v -85.314178 -1.603134 30.145538
v -82.237885 23.087259 35.747803
v -69.462044 42.168747 44.850433
v -66.382126 54.319679 19.434967
v -52.762890 54.881676 61.303711
v -46.476387 63.996647 38.499176
v -30.834705 58.819172 76.603210
v -28.135241 73.580521 59.884827
v -17.448912 80.018158 41.385468
v -1.832183 86.572548 26.517334
v -6.569393 73.749512 74.393585
v -9.444981 60.177567 87.308167
v 11.676269 61.029400 91.077881
v 13.686045 71.686028 80.594238
v -9.595589 46.207832 101.810394
v 12.887295 47.275082 101.370819
v -5.391500 25.012653 109.659637
v 15.103609 27.231485 107.472290
v 36.990166 28.691582 99.499390
v 17.497751 3.137571 114.730713
v 37.383648 4.749958 106.486603
v 18.664368 -23.594412 116.326996
v 36.501438 -21.207180 112.251801
v 20.074253 -46.966057 114.897858
v 37.227859 -42.579540 108.358459
v 21.398125 -62.718727 108.859650
v 40.091896 -58.196037 102.239258
v 56.628708 -50.219147 90.498108
v 39.902050 -71.099480 97.708954
v 56.069569 -64.595757 82.439911
v 74.842529 -57.560913 67.194031
v 73.849358 -41.771454 78.843231
v 54.866978 -77.019775 78.675659
v 71.577515 -71.186424 58.968658
v 48.429192 -84.220383 72.830719
v 65.512917 -81.528336 53.236450
v 39.408386 -90.536049 66.664246
v 54.989822 -89.429764 47.419922
v 63.503654 -84.345665 22.249603
v 42.305092 -88.181091 -6.965393
v 18.971003 -91.075928 -2.373413
v 9.795489 -83.099007 -24.034851
v 32.907265 -81.064850 -32.187622
v -1.533330 -71.738037 -44.126984
v 20.199333 -65.127708 -51.045471
v -13.690825 -57.032635 -59.975189
v 8.554629 -48.756416 -68.139679
v -25.299797 -38.700233 -68.401886
v -2.614194 -30.305626 -78.871124
v -35.972359 -22.259382 -73.572296
v -11.390553 -17.106367 -87.208633
v -16.636705 -2.731106 -84.486176
v 8.500607 5.313642 -91.825348
v -46.679470 -45.976158 -52.480316
v -56.075447 -28.874983 -54.603577
v -61.973644 -46.040161 -29.158722
v -71.731049 -33.322891 -31.424500
v -76.096664 -51.440571 -5.808258
v -79.799957 -35.445007 -3.835724
v -75.813034 -51.172165 20.948456
v -83.233040 -38.743660 24.212433
v -87.640701 -23.000753 26.912598
v -79.173248 -47.032326 52.932526
v -79.864311 -29.733662 56.250885
v -77.342964 -10.268989 57.632996
v -59.801025 -38.250637 78.677460
v -58.620975 -18.958416 79.394043
v -34.236237 -44.194317 92.499176
v -35.201115 -24.669363 96.199585
v -13.252373 -47.266018 104.848206
v -12.153869 -25.724569 105.040253
v -15.717249 -2.524504 104.875580
v 2.577507 -25.245258 115.188232
v -0.229541 0.098012 113.740906
v -23.602943 21.142611 101.421021
v -29.451174 42.025604 91.661041
v 3.073884 -48.087921 113.519379
v -12.453270 -62.909065 98.480957
v 3.780478 -63.962387 107.848877
v -12.387736 -75.197220 93.795380
v 3.307222 -76.179741 105.477814
v 21.263439 -73.904984 105.262878
v -9.457799 -84.862938 86.947998
v -25.309942 -81.058426 69.656067
v -15.643635 -87.782143 60.247772
v -1.097098 -88.833626 77.535889
v -28.813618 -70.019630 77.328308
v -50.247135 -64.194427 63.243011
v -40.112797 -72.797256 51.642761
v -30.973097 -58.254845 83.779205
v -57.833073 -54.761326 73.870789
v -69.864655 -59.246521 45.149170
v -54.691669 -67.904793 34.889862
v -38.865742 -80.487793 23.764374
v -27.501841 -83.158745 40.970062
v -23.779814 -90.666626 14.316559
v -13.314649 -90.512199 33.073395
v -2.441606 -93.551476 52.037109
v 10.825857 -93.365288 68.763489
v -3.062666 -86.929192 6.525177
v -11.406672 -79.732544 -12.289703
v -21.936750 -71.617889 -30.675598
v -34.780399 -61.271931 -45.075470
v 17.890619 80.309807 19.444092
v 44.355427 75.830147 39.334534
v 37.651772 73.129158 17.019012
v 46.831387 71.943039 58.678284
v 48.961765 72.163277 72.399719
vt 0.690530 0.669280
vt 0.714470 0.685240
vt 0.650600 0.716240
vt 0.646130 0.685600
vt 0.676220 0.649620
vt 0.700220 0.640210
vt 0.722250 0.660230
vt 0.661420 0.346640
vt 0.680260 0.315800
vt 0.697340 0.368780
vt 0.662670 0.393250
vt 0.635800 0.332160
vt 0.649610 0.269880
vt 0.628260 0.393010
vt 0.870820 0.332450
vt 0.846210 0.335810
vt 0.842550 0.290380
vt 0.883190 0.305530
vt 0.910500 0.336740
vt 0.882190 0.362610
vt 0.854070 0.369340
vt 0.595960 0.684940
vt 0.632680 0.633610
vt 0.422930 0.441730
vt 0.444570 0.455390
vt 0.413070 0.494090
vt 0.394840 0.457240
vt 0.427130 0.408450
vt 0.467480 0.412430
vt 0.394770 0.413660
vt 0.511910 0.743600
vt 0.422510 0.754370
vt 0.439980 0.706760
vt 0.501150 0.714120
vt 0.566870 0.752600
vt 0.562020 0.781870
vt 0.848320 0.440580
vt 0.872770 0.436020
vt 0.857870 0.492450
vt 0.829250 0.475770
vt 0.840290 0.412020
vt 0.866630 0.395800
vt 0.809470 0.442410
vt 0.572010 0.623010
vt 0.594950 0.568970
vt 0.652680 0.569090
vt 0.731040 0.603790
vt 0.715080 0.538800
vt 0.358630 0.281130
vt 0.340130 0.312800
vt 0.309150 0.292310
vt 0.351480 0.248650
vt 0.396910 0.228470
vt 0.390830 0.272780
vt 0.376820 0.321050
vt 0.769700 0.623230
vt 0.813990 0.646350
vt 0.759200 0.706140
vt 0.732790 0.694350
vt 0.460830 0.176830
vt 0.440590 0.171920
vt 0.448340 0.151410
vt 0.480230 0.165930
vt 0.489810 0.188020
vt 0.466940 0.195990
vt 0.437550 0.194820
vt 0.379680 0.005470
vt 0.499590 0.024120
vt 0.467510 0.053230
vt 0.382180 0.042110
vt 0.808430 0.080410
vt 0.867400 0.135220
vt 0.824380 0.148120
vt 0.730700 0.071350
vt 0.273190 0.048250
vt 0.278060 0.001950
vt 0.126720 0.468550
vt 0.078840 0.473570
vt 0.071340 0.355060
vt 0.127240 0.386310
vt 0.929370 0.306510
vt 0.887070 0.245990
vt 0.984680 0.348920
vt 0.927710 0.373030
vt 0.954250 0.249530
vt 0.007780 0.123810
vt 0.056680 0.098460
vt 0.075530 0.164750
vt 0.019260 0.180210
vt 0.971290 0.512240
vt 0.968850 0.604270
vt 0.910370 0.585040
vt 0.935360 0.501780
vt 0.936030 0.422160
vt 0.998040 0.424910
vt 0.141100 0.275120
vt 0.164610 0.329370
vt 0.070110 0.248240
vt 0.122850 0.217440
vt 0.116450 0.135350
vt 0.170660 0.092450
vt 0.185090 0.160370
vt 0.192870 0.218610
vt 0.259240 0.114010
vt 0.257210 0.170480
vt 0.263060 0.211580
vt 0.209740 0.271130
vt 0.272580 0.236300
vt 0.225310 0.300810
vt 0.190430 0.374700
vt 0.249110 0.330900
vt 0.230300 0.405500
vt 0.224350 0.481530
vt 0.172490 0.443810
vt 0.230810 0.561510
vt 0.163380 0.514810
vt 0.255090 0.642600
vt 0.155020 0.578780
vt 0.295260 0.709050
vt 0.132230 0.620270
vt 0.033500 0.505280
vt 0.004150 0.373730
vt 0.704120 0.842390
vt 0.537270 0.849250
vt 0.549480 0.813670
vt 0.684690 0.797700
vt 0.795280 0.738210
vt 0.841110 0.777440
vt 0.864240 0.663420
vt 0.922240 0.694060
vt 0.666660 0.764480
vt 0.654330 0.738990
vt 0.579170 0.722420
vt 0.536360 0.674920
vt 0.483220 0.659070
vt 0.515390 0.610170
vt 0.438180 0.647210
vt 0.467470 0.595830
vt 0.491950 0.544440
vt 0.540460 0.556330
vt 0.518280 0.492440
vt 0.562290 0.502870
vt 0.612020 0.513500
vt 0.578920 0.444890
vt 0.621230 0.454000
vt 0.662560 0.453130
vt 0.661600 0.510460
vt 0.706230 0.426250
vt 0.711160 0.482380
vt 0.744790 0.387180
vt 0.756510 0.438140
vt 0.772980 0.486640
vt 0.788790 0.529730
vt 0.794200 0.401080
vt 0.776850 0.355760
vt 0.812860 0.338120
vt 0.826520 0.378180
vt 0.760530 0.310340
vt 0.796500 0.293560
vt 0.735280 0.257140
vt 0.767650 0.239820
vt 0.820950 0.227930
vt 0.714850 0.177020
vt 0.757530 0.153050
vt 0.630950 0.120360
vt 0.633840 0.076690
vt 0.555140 0.122110
vt 0.537640 0.087740
vt 0.514960 0.135910
vt 0.480290 0.106570
vt 0.418380 0.084910
vt 0.458400 0.130910
vt 0.399050 0.126260
vt 0.329710 0.136630
vt 0.345470 0.089680
vt 0.394050 0.150530
vt 0.328670 0.170900
vt 0.392030 0.171600
vt 0.332760 0.194360
vt 0.392940 0.196360
vt 0.339790 0.219390
vt 0.286850 0.263190
vt 0.281900 0.354260
vt 0.321700 0.366020
vt 0.311530 0.426470
vt 0.271260 0.423360
vt 0.312780 0.491320
vt 0.271420 0.495280
vt 0.328180 0.550250
vt 0.284860 0.568870
vt 0.358940 0.600900
vt 0.317780 0.639480
vt 0.398830 0.632710
vt 0.359880 0.683850
vt 0.400370 0.698560
vt 0.383930 0.759830
vt 0.388200 0.794540
vt 0.397100 0.556430
vt 0.429920 0.580050
vt 0.437510 0.516280
vt 0.460460 0.531470
vt 0.472950 0.470140
vt 0.492140 0.479100
vt 0.498590 0.418980
vt 0.521610 0.425850
vt 0.544850 0.435160
vt 0.536840 0.368200
vt 0.563650 0.372510
vt 0.594240 0.380810
vt 0.569700 0.310120
vt 0.603200 0.317720
vt 0.572360 0.246110
vt 0.611730 0.250860
vt 0.572380 0.191580
vt 0.622570 0.194080
vt 0.673390 0.223900
vt 0.628460 0.155060
vt 0.691240 0.195760
vt 0.708520 0.282140
vt 0.729850 0.335420
vt 0.567940 0.155420
vt 0.536710 0.202680
vt 0.531640 0.167290
vt 0.511010 0.213090
vt 0.509050 0.178220
vt 0.495690 0.150510
vt 0.488780 0.221070
vt 0.483750 0.270400
vt 0.455490 0.276600
vt 0.464000 0.227370
vt 0.509200 0.261110
vt 0.515090 0.311720
vt 0.479790 0.321160
vt 0.537560 0.252840
vt 0.541530 0.306850
vt 0.512840 0.365920
vt 0.478160 0.366810
vt 0.432750 0.369510
vt 0.440920 0.325550
vt 0.401620 0.369910
vt 0.412040 0.324040
vt 0.424310 0.276350
vt 0.434230 0.229400
vt 0.363350 0.370090
vt 0.355120 0.422270
vt 0.356600 0.477730
vt 0.371240 0.522680
vt 0.822010 0.559390
vt 0.892150 0.499790
vt 0.861590 0.573840
vt 0.898880 0.428580
vt 0.891270 0.388760
vt 0.001950 0.265750
vt 0.156150 0.030370
vt 0.092550 0.057520
vn -0.024565 0.851686 -0.523477
vn -0.243823 0.884085 -0.398678
vn -0.172205 0.932091 -0.318672
vn -0.037533 0.938683 -0.342731
vn -0.025256 0.879193 -0.475795
vn -0.056565 0.852995 -0.518845
vn -0.095069 0.842243 -0.530650
vn -0.637846 0.083194 0.765657
vn -0.609270 0.062236 0.790517
vn -0.645773 0.347861 0.679683
vn -0.763419 0.279384 0.582353
vn -0.628518 0.114494 0.769322
vn -0.544418 0.060178 0.836653
vn -0.835767 0.157880 0.525896
vn 0.267465 0.349037 0.898129
vn 0.061345 0.492299 0.868262
vn 0.281066 0.271279 0.920548
vn 0.475806 0.173302 0.862308
vn 0.769456 0.385915 0.508928
vn 0.480740 0.716500 0.505487
vn -0.001887 0.831576 0.555408
vn -0.386686 0.767137 -0.511835
vn -0.501280 0.781720 -0.370988
vn -0.682167 -0.698316 -0.216803
vn -0.579137 -0.792994 -0.189105
vn -0.550579 -0.745342 -0.375936
vn -0.415349 -0.823775 -0.385851
vn -0.667419 -0.740289 -0.080766
vn -0.590698 -0.803302 -0.076036
vn -0.293120 -0.903167 -0.313641
vn -0.183725 0.441994 -0.878001
vn -0.076996 0.251306 -0.964840
vn -0.389100 0.134532 -0.911319
vn -0.360005 0.410915 -0.837583
vn 0.018702 0.678788 -0.734096
vn 0.255566 0.562991 -0.785957
vn 0.130294 0.946838 0.294145
vn 0.283578 0.944525 0.165699
vn 0.283604 0.957062 -0.060007
vn 0.027650 0.994310 0.102877
vn 0.022933 0.931670 0.362581
vn 0.124356 0.965605 0.228346
vn -0.148854 0.949036 0.277800
vn -0.731358 0.513628 -0.448666
vn -0.831966 0.459736 -0.310605
vn -0.628890 0.749242 -0.207685
vn -0.239059 0.950284 -0.199526
vn -0.453088 0.890699 -0.036962
vn 0.082776 -0.991539 -0.099989
vn 0.036741 -0.988963 -0.143533
vn 0.306099 -0.939066 -0.156395
vn 0.240150 -0.970463 -0.023034
vn 0.093998 -0.987158 0.129168
vn -0.079507 -0.996820 -0.005324
vn -0.124756 -0.983637 -0.129976
vn 0.190066 0.952153 -0.239331
vn 0.408286 0.890104 -0.202527
vn 0.437524 0.835771 -0.331752
vn 0.172207 0.920661 -0.350326
vn 0.146124 -0.892168 0.427417
vn 0.345426 -0.864514 0.365098
vn 0.514867 -0.598721 0.613552
vn 0.192982 -0.663357 0.722990
vn -0.234744 -0.782035 0.577336
vn -0.097722 -0.951724 0.290984
vn 0.109331 -0.962338 0.248902
vn 0.774166 0.127659 0.619977
vn 0.327288 0.098451 0.939782
vn 0.472658 -0.413438 0.778244
vn 0.881727 -0.215152 0.419841
vn 0.797681 0.225613 0.559289
vn 0.429776 0.368174 0.824464
vn 0.951724 -0.031937 0.305290
vn 0.824098 -0.132244 -0.550794
vn 0.841771 0.143383 -0.520445
vn 0.920256 0.208607 -0.331078
vn 0.871128 -0.111995 -0.478114
vn 0.749116 0.308940 0.585988
vn 0.544725 0.296348 0.784508
vn 0.884025 0.350107 0.309720
vn 0.775862 0.587860 0.229040
vn 0.841850 0.223330 0.491337
vn 0.791440 0.599816 -0.117660
vn 0.875761 0.473446 0.094291
vn 0.944152 0.288745 -0.158756
vn 0.825808 0.501299 -0.258342
vn 0.611657 0.755135 -0.235895
vn 0.622863 0.778110 -0.081164
vn 0.700946 0.695163 0.159447
vn 0.977350 0.047322 -0.206273
vn 0.912420 -0.143487 -0.383276
vn 0.931722 0.268500 -0.244546
vn 0.987005 0.100329 -0.125522
vn 0.984469 0.170321 0.042558
vn 0.967605 0.047903 0.247882
vn 0.994675 -0.030203 0.098535
vn 0.998579 -0.046808 -0.025467
vn 0.961019 -0.087839 0.262158
vn 0.971419 -0.138364 0.192873
vn 0.941692 -0.328848 0.071233
vn 0.956676 -0.212230 -0.199325
vn 0.760278 -0.643657 -0.087652
vn 0.771665 -0.511655 -0.377813
vn 0.736428 -0.392274 -0.551175
vn 0.592393 -0.710301 -0.380187
vn 0.591022 -0.551478 -0.588698
vn 0.526307 -0.496055 -0.690601
vn 0.700347 -0.353554 -0.620092
vn 0.442006 -0.451829 -0.774907
vn 0.663811 -0.309001 -0.681083
vn 0.357582 -0.354801 -0.863859
vn 0.640005 -0.137303 -0.756004
vn 0.277417 -0.221981 -0.934754
vn 0.622359 0.057650 -0.780606
vn 0.798685 0.328985 -0.503856
vn 0.845986 0.417538 -0.331617
vn 0.478198 0.347744 -0.806474
vn 0.634691 0.556672 -0.535988
vn 0.684628 0.639458 -0.349826
vn 0.658907 0.705441 -0.261140
vn 0.847788 0.442505 -0.292308
vn 0.405984 0.728681 -0.551545
vn 0.115702 0.856641 -0.502772
vn -0.219367 0.747933 -0.626478
vn -0.585006 0.489850 -0.646386
vn -0.626163 0.205802 -0.752041
vn -0.833854 0.232195 -0.500772
vn -0.579534 -0.050826 -0.813362
vn -0.812174 -0.056902 -0.580633
vn -0.924439 -0.035205 -0.379702
vn -0.922191 0.207505 -0.326352
vn -0.974004 -0.031107 -0.224385
vn -0.966732 0.178618 -0.183098
vn -0.917736 0.375298 -0.130046
vn -0.984502 0.133382 0.113860
vn -0.946010 0.282982 0.158069
vn -0.807594 0.520711 0.276859
vn -0.743334 0.668920 0.000797
vn -0.650104 0.630705 0.423764
vn -0.560785 0.814673 0.147743
vn -0.504329 0.646447 0.572502
vn -0.444959 0.842977 0.302327
vn -0.356624 0.928567 0.102874
vn -0.104323 0.993407 -0.047536
vn -0.236047 0.830151 0.505105
vn -0.285309 0.675840 0.679588
vn -0.040420 0.634080 0.772211
vn -0.069321 0.807125 0.586297
vn -0.261499 0.466412 0.845032
vn 0.106976 0.437492 0.892836
vn -0.229773 0.208298 0.950693
vn 0.175326 0.289466 0.940994
vn 0.359017 0.291174 0.886749
vn 0.155980 0.184233 0.970427
vn 0.288146 0.284126 0.914464
vn 0.127170 0.012675 0.991800
vn 0.212472 0.049500 0.975913
vn 0.154017 -0.193951 0.968846
vn 0.302990 -0.281926 0.910338
vn 0.209266 -0.306312 0.928645
vn 0.496317 -0.383243 0.778970
vn 0.631397 -0.484415 0.605541
vn 0.571786 -0.352559 0.740785
vn 0.683142 -0.373360 0.627630
vn 0.846444 -0.289037 0.447203
vn 0.876122 -0.263145 0.403937
vn 0.654194 -0.551044 0.518054
vn 0.797674 -0.478795 0.366703
vn 0.482874 -0.808090 0.337377
vn 0.629918 -0.743846 0.223375
vn 0.298601 -0.925671 0.232314
vn 0.410537 -0.908359 0.079654
vn 0.505869 -0.845112 -0.172863
vn 0.332392 -0.894145 -0.300034
vn -0.061220 -0.973039 -0.222366
vn -0.130178 -0.919378 -0.371210
vn 0.279847 -0.787205 -0.549540
vn -0.128389 -0.837688 -0.530844
vn 0.222667 -0.683368 -0.695290
vn -0.187851 -0.683944 -0.704934
vn 0.121649 -0.580869 -0.804856
vn -0.312340 -0.533210 -0.786213
vn -0.004564 -0.495911 -0.868362
vn -0.468733 -0.330108 -0.819340
vn -0.166756 -0.332597 -0.928209
vn -0.337134 -0.046254 -0.940320
vn 0.096912 0.032919 -0.994749
vn -0.536567 -0.558163 -0.632890
vn -0.680218 -0.350120 -0.643988
vn -0.684260 -0.578314 -0.444230
vn -0.841522 -0.301125 -0.448513
vn -0.743762 -0.628313 -0.228125
vn -0.927722 -0.277734 -0.249392
vn -0.744999 -0.663178 -0.071906
vn -0.945310 -0.325996 -0.010756
vn -0.997034 -0.039638 0.065974
vn -0.844024 -0.420000 0.333503
vn -0.888063 -0.059060 0.455913
vn -0.859613 0.096381 0.501773
vn -0.639721 -0.166363 0.750387
vn -0.638291 0.075230 0.766110
vn -0.500697 -0.252631 0.827937
vn -0.501019 0.019100 0.865225
vn -0.505724 -0.211829 0.836285
vn -0.491474 -0.019709 0.870669
vn -0.514901 0.000562 0.857249
vn -0.298345 -0.020340 0.954241
vn -0.260989 0.071349 0.962701
vn -0.546907 0.085900 0.832775
vn -0.542723 0.386912 0.745487
vn -0.291541 -0.184198 0.938656
vn -0.571095 -0.352672 0.741265
vn -0.281335 -0.306079 0.909487
vn -0.618699 -0.451293 0.643075
vn -0.302071 -0.418403 0.856559
vn 0.221408 -0.383534 0.896593
vn -0.470207 -0.788995 0.395464
vn -0.552563 -0.788609 0.269761
vn -0.407577 -0.904319 0.126840
vn -0.254844 -0.944788 0.205986
vn -0.596080 -0.610884 0.521066
vn -0.508723 -0.777249 0.370250
vn -0.519896 -0.828184 0.209330
vn -0.522260 -0.487304 0.699843
vn -0.579202 -0.519763 0.627990
vn -0.628028 -0.770512 0.109053
vn -0.553294 -0.831064 0.056555
vn -0.554070 -0.825617 0.106598
vn -0.474955 -0.867813 0.146010
vn -0.228103 -0.968828 -0.096654
vn -0.266177 -0.963911 0.004982
vn -0.248833 -0.965696 0.074258
vn -0.103875 -0.978070 0.180524
vn -0.116663 -0.965614 -0.232337
vn -0.170926 -0.923521 -0.343356
vn -0.265276 -0.868331 -0.419083
vn -0.401769 -0.738247 -0.541824
vn 0.235753 0.955856 -0.175384
vn 0.433649 0.897536 -0.079862
vn 0.391581 0.896376 -0.207786
vn 0.498466 0.859193 0.115408
vn 0.538449 0.829106 0.150519
s 1
g Asteroid_mid1
usemtl initialShadingGroup
f 1/1/1 18/2/2 19/3/3 20/4/4
f 1/1/1 20/4/4 4/5/5 21/6/6
f 1/1/1 21/6/6 12/7/7 18/2/2
f 2/8/8 22/9/9 23/10/10 24/11/11
f 2/8/8 25/12/12 26/13/13 22/9/9
f 2/8/8 24/11/11 27/14/14 25/12/12
f 3/15/15 28/16/16 29/17/17 30/18/18
f 3/15/15 30/18/18 31/19/19 32/20/20
f 3/15/15 32/20/20 33/21/21 28/16/16
f 4/5/5 20/4/4 34/22/22 8/23/23
f 5/24/24 35/25/25 36/26/26 37/27/27
f 5/24/24 38/28/28 39/29/29 35/25/25
f 5/24/24 37/27/27 40/30/30 38/28/28
f 6/31/31 41/32/32 42/33/33 43/34/34
f 6/31/31 44/35/35 45/36/36 41/32/32
f 7/37/37 46/38/38 47/39/39 48/40/40
f 7/37/37 49/41/41 50/42/42 46/38/38
f 7/37/37 48/40/40 51/43/43 49/41/41
f 8/23/23 52/44/44 53/45/45 54/46/46
f 8/23/23 15/47/47 21/6/6 4/5/5
f 8/23/23 54/46/46 55/48/48 15/47/47
f 9/49/49 56/50/50 57/51/51 58/52/52
f 9/49/49 58/52/52 59/53/53 60/54/54
f 9/49/49 60/54/54 61/55/55 56/50/50
f 10/56/56 62/57/57 63/58/58 64/59/59
f 10/56/56 12/7/7 21/6/6 15/47/47
f 10/56/56 64/59/59 18/2/2 12/7/7
f 11/60/60 65/61/61 66/62/62 67/63/63
f 11/60/60 67/63/63 68/64/64 69/65/65
f 11/60/60 69/65/65 70/66/66 65/61/61
f 13/67/67 71/68/68 72/69/69 73/70/70
f 13/71/67 74/72/71 75/73/72 71/74/68
f 13/67/67 73/70/70 76/75/73 74/76/71
f 77/77/74 78/78/75 17/79/76 79/80/77
f 14/81/78 31/19/19 30/18/18 80/82/79
f 82/83/80 83/84/81 31/19/19 14/81/78
f 14/81/78 80/82/79 81/85/82 82/83/80
f 16/86/83 84/87/84 85/88/85 86/89/86
f 16/90/83 86/91/86 87/92/87 88/93/88
f 16/90/83 88/93/88 89/94/89 84/95/84
f 17/79/76 90/96/90 91/97/91 79/80/77
f 17/79/76 92/98/92 93/99/93 90/96/90
f 93/99/93 94/100/94 95/101/95 96/102/96
f 93/99/93 96/102/96 97/103/97 90/96/90
f 93/99/93 92/98/92 85/88/85 94/100/94
f 97/103/97 96/102/96 98/104/98 99/105/99
f 97/103/97 99/105/99 100/106/100 101/107/101
f 97/103/97 101/107/101 91/97/91 90/96/90
f 101/107/101 100/106/100 102/108/102 103/109/103
f 101/107/101 103/109/103 104/110/104 91/97/91
f 104/110/104 103/109/103 105/111/105 106/112/106
f 104/110/104 106/112/106 107/113/107 108/114/108
f 104/110/104 108/114/108 79/80/77 91/97/91
f 108/114/108 107/113/107 109/115/109 110/116/110
f 108/114/108 110/116/110 77/77/74 79/80/77
f 110/116/110 109/115/109 111/117/111 112/118/112
f 110/116/110 112/118/112 78/78/75 77/77/74
f 112/118/112 111/117/111 113/119/113 114/120/114
f 112/118/112 114/120/114 115/121/115 78/78/75
f 115/121/115 116/122/116 17/79/76 78/78/75
f 115/123/115 114/124/114 117/125/117 118/126/118
f 115/123/115 118/126/118 119/127/119 116/128/116
f 119/127/119 120/129/120 121/130/121 116/128/116
f 119/127/119 118/126/118 122/131/122 63/58/58
f 119/127/119 63/58/58 62/57/57 120/129/120
f 122/131/122 118/126/118 117/125/117 45/36/36
f 122/131/122 45/36/36 44/35/35 123/132/123
f 122/131/122 123/132/123 64/59/59 63/58/58
f 123/132/123 44/35/35 124/133/124 19/3/3
f 123/132/123 19/3/3 18/2/2 64/59/59
f 124/133/124 44/35/35 6/31/31 43/34/34
f 124/133/124 43/34/34 125/134/125 34/22/22
f 124/133/124 34/22/22 20/4/4 19/3/3
f 125/134/125 43/34/34 42/33/33 126/135/126
f 125/134/125 126/135/126 127/136/127 52/44/44
f 125/134/125 52/44/44 8/23/23 34/22/22
f 127/136/127 126/135/126 128/137/128 129/138/129
f 127/136/127 129/138/129 130/139/130 131/140/131
f 127/136/127 131/140/131 53/45/45 52/44/44
f 131/140/131 130/139/130 132/141/132 133/142/133
f 131/140/131 133/142/133 134/143/134 53/45/45
f 134/143/134 133/142/133 135/144/135 136/145/136
f 134/143/134 136/145/136 137/146/137 138/147/138
f 134/143/134 138/147/138 54/46/46 53/45/45
f 138/147/138 137/146/137 139/148/139 140/149/140
f 138/147/138 140/149/140 55/48/48 54/46/46
f 140/149/140 139/148/139 141/150/141 142/151/142
f 140/149/140 142/151/142 143/152/143 55/48/48
f 143/152/143 144/153/144 15/47/47 55/48/48
f 143/152/143 142/151/142 145/154/145 51/43/43
f 143/152/143 51/43/43 48/40/40 144/153/144
f 145/154/145 142/151/142 141/150/141 146/155/146
f 145/154/145 146/155/146 147/156/147 148/157/148
f 145/154/145 148/157/148 49/41/41 51/43/43
f 148/157/148 147/156/147 28/16/16 33/21/21
f 148/157/148 33/21/21 50/42/42 49/41/41
f 147/156/147 146/155/146 149/158/149 150/159/150
f 147/156/147 150/159/150 29/17/17 28/16/16
f 150/159/150 149/158/149 151/160/151 152/161/152
f 150/159/150 152/161/152 153/162/153 29/17/17
f 153/162/153 152/161/152 154/163/154 155/164/155
f 153/162/153 155/164/155 75/73/72 80/82/79
f 153/162/153 80/82/79 30/18/18 29/17/17
f 155/164/155 154/163/154 156/165/156 157/166/157
f 155/164/155 157/166/157 71/74/68 75/73/72
f 157/166/157 156/165/156 158/167/158 159/168/159
f 157/166/157 159/168/159 72/69/69 71/68/68
f 159/168/159 158/167/158 160/169/160 161/170/161
f 159/168/159 161/170/161 162/171/162 72/69/69
f 162/171/162 161/170/161 163/172/163 164/173/164
f 162/171/162 164/173/164 165/174/165 166/175/166
f 162/171/162 166/175/166 73/70/70 72/69/69
f 166/175/166 165/174/165 99/105/99 98/104/98
f 166/175/166 98/104/98 76/75/73 73/70/70
f 165/174/165 164/173/164 167/176/167 168/177/168
f 165/174/165 168/177/168 100/106/100 99/105/99
f 168/177/168 167/176/167 169/178/169 170/179/170
f 168/177/168 170/179/170 102/108/102 100/106/100
f 170/179/170 169/178/169 171/180/171 172/181/172
f 170/179/170 172/181/172 173/182/173 102/108/102
f 173/182/173 172/181/172 58/52/52 57/51/51
f 173/182/173 57/51/51 174/183/174 105/111/105
f 173/182/173 105/111/105 103/109/103 102/108/102
f 174/183/174 57/51/51 56/50/50 175/184/175
f 174/183/174 175/184/175 176/185/176 177/186/177
f 174/183/174 177/186/177 106/112/106 105/111/105
f 177/186/177 176/185/176 178/187/178 179/188/179
f 177/186/177 179/188/179 107/113/107 106/112/106
f 179/188/179 178/187/178 180/189/180 181/190/181
f 179/188/179 181/190/181 109/115/109 107/113/107
f 181/190/181 180/189/180 182/191/182 183/192/183
f 181/190/181 183/192/183 111/117/111 109/115/109
f 183/192/183 182/191/182 184/193/184 185/194/185
f 183/192/183 185/194/185 113/119/113 111/117/111
f 185/194/185 184/193/184 128/137/128 186/195/186
f 185/194/185 186/195/186 187/196/187 113/119/113
f 187/196/187 117/125/117 114/124/114 113/197/113
f 187/196/187 186/195/186 42/33/33 41/32/32
f 187/196/187 41/32/32 45/36/36 117/125/117
f 186/195/186 128/137/128 126/135/126 42/33/33
f 184/193/184 182/191/182 188/198/188 189/199/189
f 184/193/184 189/199/189 129/138/129 128/137/128
f 189/199/189 188/198/188 190/200/190 191/201/191
f 189/199/189 191/201/191 130/139/130 129/138/129
f 191/201/191 190/200/190 192/202/192 193/203/193
f 191/201/191 193/203/193 132/141/132 130/139/130
f 193/203/193 192/202/192 194/204/194 195/205/195
f 193/203/193 195/205/195 196/206/196 132/141/132
f 196/206/196 195/205/195 197/207/197 198/208/198
f 196/206/196 198/208/198 199/209/199 135/144/135
f 196/206/196 135/144/135 133/142/133 132/141/132
f 199/209/199 198/208/198 200/210/200 201/211/201
f 199/209/199 201/211/201 25/12/12 27/14/14
f 199/209/199 27/14/14 136/145/136 135/144/135
f 201/211/201 200/210/200 202/212/202 203/213/203
f 201/211/201 203/213/203 26/13/13 25/12/12
f 203/213/203 202/212/202 204/214/204 205/215/205
f 203/213/203 205/215/205 206/216/206 26/13/13
f 206/216/206 205/215/205 207/217/207 208/218/208
f 206/216/206 208/218/208 151/160/151 209/219/209
f 206/216/206 209/219/209 22/9/9 26/13/13
f 209/219/209 151/160/151 149/158/149 210/220/210
f 209/219/209 210/220/210 23/10/10 22/9/9
f 210/220/210 149/158/149 146/155/146 141/150/141
f 210/220/210 141/150/141 139/148/139 23/10/10
f 208/218/208 207/217/207 156/165/156 154/163/154
f 208/218/208 154/163/154 152/161/152 151/160/151
f 207/217/207 205/215/205 204/214/204 211/221/211
f 207/217/207 211/221/211 158/167/158 156/165/156
f 211/221/211 204/214/204 212/222/212 213/223/213
f 211/221/211 213/223/213 160/169/160 158/167/158
f 213/223/213 212/222/212 214/224/214 215/225/215
f 213/223/213 215/225/215 216/226/216 160/169/160
f 216/226/216 215/225/215 68/64/64 67/63/63
f 216/226/216 67/63/63 66/62/62 163/172/163
f 216/226/216 163/172/163 161/170/161 160/169/160
f 215/225/215 214/224/214 217/227/217 68/64/64
f 217/227/217 218/228/218 219/229/219 220/230/220
f 217/227/217 220/230/220 69/65/65 68/64/64
f 217/227/217 214/224/214 221/231/221 218/228/218
f 221/231/221 222/232/222 223/233/223 218/228/218
f 221/231/221 214/224/214 212/222/212 224/234/224
f 221/231/221 224/234/224 225/235/225 222/232/222
f 225/235/225 197/207/197 226/236/226 222/232/222
f 225/235/225 224/234/224 202/212/202 200/210/200
f 225/235/225 200/210/200 198/208/198 197/207/197
f 226/236/226 194/204/194 39/29/29 227/237/227
f 226/236/226 227/237/227 223/233/223 222/232/222
f 226/236/226 197/207/197 195/205/195 194/204/194
f 227/237/227 39/29/29 38/28/28 228/238/228
f 227/237/227 228/238/228 229/239/229 223/233/223
f 229/239/229 228/238/228 230/240/230 231/241/231
f 229/239/229 231/241/231 232/242/232 219/229/219
f 229/239/229 219/229/219 218/228/218 223/233/223
f 232/242/232 231/241/231 61/55/55 60/54/54
f 232/242/232 60/54/54 59/53/53 233/243/233
f 232/242/232 233/243/233 220/230/220 219/229/219
f 233/243/233 59/53/53 171/180/171 70/66/66
f 233/243/233 70/66/66 69/65/65 220/230/220
f 231/241/231 230/240/230 234/244/234 61/55/55
f 234/244/234 175/184/175 56/50/50 61/55/55
f 234/244/234 230/240/230 40/30/30 235/245/235
f 234/244/234 235/245/235 176/185/176 175/184/175
f 235/245/235 40/30/30 37/27/27 236/246/236
f 235/245/235 236/246/236 178/187/178 176/185/176
f 236/246/236 37/27/27 36/26/26 237/247/237
f 236/246/236 237/247/237 180/189/180 178/187/178
f 237/247/237 36/26/26 190/200/190 188/198/188
f 237/247/237 188/198/188 182/191/182 180/189/180
f 230/240/230 228/238/228 38/28/28 40/30/30
f 224/234/224 212/222/212 204/214/204 202/212/202
f 194/204/194 192/202/192 35/25/25 39/29/29
f 192/202/192 190/200/190 36/26/26 35/25/25
f 172/181/172 171/180/171 59/53/53 58/52/52
f 171/180/171 169/178/169 65/61/61 70/66/66
f 169/178/169 167/176/167 66/62/62 65/61/61
f 167/176/167 164/173/164 163/172/163 66/62/62
f 144/153/144 238/248/238 10/56/56 15/47/47
f 144/153/144 48/40/40 47/39/39 238/248/238
f 238/248/238 47/39/39 239/249/239 240/250/240
f 238/248/238 240/250/240 62/57/57 10/56/56
f 240/250/240 239/249/239 88/93/88 87/92/87
f 240/250/240 87/92/87 120/129/120 62/57/57
f 239/249/239 241/251/241 89/94/89 88/93/88
f 239/249/239 47/39/39 46/38/38 241/251/241
f 241/251/241 242/252/242 83/84/81 89/94/89
f 241/251/241 46/38/38 50/42/42 242/252/242
f 242/252/242 32/20/20 31/19/19 83/84/81
f 242/252/242 50/42/42 33/21/21 32/20/20
f 139/148/139 137/146/137 24/11/11 23/10/10
f 137/146/137 136/145/136 27/14/14 24/11/11
f 121/253/121 86/89/86 85/88/85 92/98/92
f 121/253/121 92/98/92 17/79/76 116/122/116
f 121/130/121 120/129/120 87/92/87 86/91/86
f 98/104/98 96/102/96 95/101/95 76/75/73
f 95/101/95 81/254/82 74/76/71 76/75/73
f 95/101/95 94/100/94 82/255/80 81/254/82
f 94/100/94 85/88/85 84/87/84 82/255/80
f 89/94/89 83/84/81 82/83/80 84/95/84
f 81/85/82 80/82/79 75/73/72 74/72/71
