# This file uses meters as units for non-parametric coordinates.

mtllib Asteroid_grand.mtl
g default
v 106.676125 22.916134 -5.145608
v 102.988724 38.967827 3.423596
v 121.708298 38.727039 28.632145
v 125.092018 23.053461 26.863279
v 95.559036 31.407995 -33.321125
v 94.879601 46.364738 -12.828193
v 88.675575 51.838737 -46.336208
v 86.747765 64.515724 -19.539040
v 72.924675 81.878624 -23.190329
v 73.270470 75.600670 -51.825134
v 54.772461 79.803322 -52.617767
v 57.469028 88.609123 -23.807724
v 46.982918 79.849762 -43.266571
v 47.173538 82.865509 -31.766014
v 31.114737 81.580910 -41.003819
v 30.210630 89.651337 -30.338493
v 32.781181 80.052971 -53.983288
v 36.389027 99.997208 -17.435223
v 7.847163 94.759682 -30.851906
v 12.559237 104.011261 -15.245047
v 11.106806 84.472450 -39.474155
v 13.184362 75.100777 -49.954891
v 56.027328 69.978119 -68.091232
v 37.079063 67.837189 -67.795738
v 69.064110 63.240864 -67.460693
v 82.755150 43.969963 -65.694107
v 88.063286 22.489552 -47.495514
v 109.171234 10.929638 -15.440082
v 132.016327 9.013870 20.886845
v 120.032356 50.183224 21.628521
v 108.651665 50.724533 7.368618
v 102.474052 57.287495 2.008259
v 92.949104 75.184967 -0.294269
v 72.310730 79.204971 -4.763345
v 52.480740 55.913811 -77.724213
v 39.040218 55.179100 -74.257202
v 61.424927 50.978397 -77.873474
v 70.774742 36.752934 -77.597580
v 79.596672 13.989661 -58.965008
v 108.072983 -3.212102 -22.529245
v 136.002472 -8.887472 14.934094
v 107.897842 -21.049223 -23.771212
v 136.521545 -31.379002 12.227016
v 74.127350 0.307050 -59.221016
v 58.460327 25.425570 -81.684090
v 49.485195 38.854969 -80.189392
v 40.989880 41.356392 -78.424812
v 21.352129 38.927902 -73.451263
v 124.620537 56.415417 22.542204
v 138.593643 41.317005 38.708786
v 137.131424 25.395714 43.513821
v 139.177902 8.481315 45.555218
v 139.657150 -12.187151 44.260731
v 130.444321 -32.948814 40.379051
v 51.694130 4.311345 -73.651382
v 71.696968 -19.987288 -59.592403
v 103.738297 -40.340439 -24.166737
v 127.959534 -50.777740 11.223477
v 117.497795 -47.326725 35.637623
v 102.617676 -66.117050 26.531519
v 104.387955 -66.153214 6.000270
v 78.659821 -82.790871 19.331633
v 75.413345 -76.130920 2.229180
v 47.243629 -82.724022 21.188036
v 49.008041 -83.221779 3.669302
v 38.314957 -75.423920 -19.446608
v 62.543102 -73.500481 -26.639578
v 85.712196 -58.383785 -25.820290
v 22.670704 -64.440353 -40.586033
v 37.019623 -54.877213 -48.746513
v 55.385925 -39.702995 -56.113060
v 28.172665 -16.276913 -71.392342
v 12.839437 -40.011467 -58.936325
v 6.868773 -56.693008 -46.814232
v 41.083469 14.091995 -85.188553
v 46.414452 24.879089 -85.678070
v 25.276720 2.801756 -84.690147
v 33.431385 31.688904 -87.409294
v 18.181240 26.657524 -86.100533
v 42.708176 32.059490 -85.121170
v 10.992864 2.349047 -84.276909
v 1.922489 -8.142054 -69.509781
v 8.025267 16.930099 -81.140182
v 1.123691 17.230848 -68.187119
v 12.934317 55.886795 -64.942825
v -7.800558 -52.679523 -39.821430
v -7.052685 -33.799164 -53.666931
v 63.191414 -107.081276 52.665314
v 33.636818 -99.435997 46.603973
v 51.560780 -100.586792 76.881226
v 28.179960 -99.907028 65.987976
v 37.490734 -88.411491 97.394325
v 23.158850 -88.374268 78.128975
v 24.863388 -71.289047 99.991402
v 14.588580 -81.759415 85.380142
v -7.353834 -68.160995 104.579575
v -8.778276 -79.575600 90.669044
v -51.242985 -67.870033 89.501602
v -41.918316 -75.885368 80.237617
v -62.178604 -52.417149 45.962605
v -47.397770 -61.783016 43.420090
v -52.746361 -41.685825 1.574451
v -42.571732 -54.308422 3.887306
v -22.225346 -51.989590 -23.256905
v -32.557796 -36.101460 -33.317402
v 40.491936 -93.705849 35.773022
v 71.456390 -95.985649 34.827045
v 2.819178 -79.361412 -48.762733
v -11.814528 -75.846664 -44.166077
v -27.614349 -74.629738 -31.220913
v 6.750356 -101.267654 79.239326
v 14.818774 -101.307159 75.189102
v -11.590753 -98.774521 80.127861
v -36.585285 -93.074059 69.075462
v -49.059944 -76.076614 -2.706514
v -53.718224 -84.334114 38.612103
v -27.677359 -105.562607 47.306316
v -37.233597 -101.035736 28.221407
v -13.166300 -109.383102 56.198566
v 16.130375 -106.265335 62.655258
v 24.127033 -111.225998 42.450039
v 31.331800 -110.115631 26.977610
v 37.905281 -105.538193 16.379414
v 38.930920 -102.951492 1.352613
v 15.435534 -84.879456 -37.622066
v 27.015642 -93.149063 -17.996082
v -40.736286 -99.031403 -1.026067
v -24.620420 -96.660645 -25.386307
v -12.556923 -93.455902 -34.484428
v -4.222873 -98.462151 -33.399216
v 2.644580 -109.768318 56.077679
v 14.278088 -117.218033 38.029259
v 22.472576 -120.942871 22.897772
v 27.209990 -120.362114 12.116590
v 25.349312 -115.758949 -0.608084
v 16.022509 -106.454033 -16.066994
v 5.503324 -102.472832 -28.483541
v -13.998631 -108.510452 -17.566324
v -22.978764 -112.551735 -0.140756
v -18.566397 -113.261131 17.767124
v -20.442514 -114.105545 33.247341
v -9.338436 -115.161331 35.652466
v -1.674724 -115.659134 38.879959
v 5.773582 -119.442451 31.987602
v 5.690909 -123.267136 20.528965
v 14.505457 -123.827721 9.736990
v 6.926260 -120.860222 1.196777
v 0.517332 -113.849350 -9.243942
v -3.521346 -109.458084 -16.439262
v 152.985779 49.962399 51.463737
v 152.549484 27.904823 61.848759
v 146.437103 5.753428 64.112518
v 138.003845 -19.412544 63.795975
v 127.236511 -38.563538 61.645840
v 120.223061 -64.843712 53.384438
v 99.559769 -81.964020 46.189922
v 92.377914 -94.721207 66.520012
v 77.152168 -94.156822 93.536194
v 56.195221 -76.399666 114.199020
v 35.734268 -55.879826 109.030136
v -2.827792 -53.529377 119.532936
v -52.678543 -47.353004 99.189575
v -75.579430 -33.312710 53.401463
v -36.497623 -12.666247 -38.765568
v -59.684750 -18.848892 3.898418
v -27.749575 24.407379 -43.540428
v -22.156174 54.612911 -32.518822
v -24.629208 71.299225 -25.034647
v -23.363239 85.623146 -18.145758
v -13.718857 102.140610 -4.446024
v 42.389793 -39.240536 106.432877
v -1.808566 -29.595720 125.115730
v -59.140705 -21.829937 109.203003
v -77.143852 -3.669802 59.891094
v -57.717999 9.799340 9.073071
v -55.314785 36.855122 11.382010
v -70.418739 21.651258 64.168701
v -50.375576 2.651533 104.697174
v 4.768139 -12.250834 123.284737
v 53.324856 -26.224691 109.302567
v 66.177406 -57.238220 125.032684
v 78.718666 -43.359886 123.687164
v 91.207642 -77.573418 105.904503
v 109.845345 -78.842094 77.587952
v 130.129822 -54.298843 85.615990
v 104.391548 -56.797947 111.404335
v 137.772232 -28.132320 87.919762
v 114.635513 -31.327381 111.149200
v 88.367401 -31.545700 122.999794
v 61.932995 -18.937992 122.911621
v 22.060926 0.250495 125.214249
v -28.525208 20.213427 107.573883
v -59.100983 48.153439 74.634300
v -55.755905 55.922684 15.275194
v -53.759266 76.104683 7.209229
v -42.122906 82.323784 31.194864
v 144.639343 0.461519 90.676048
v 151.561890 30.699930 94.654076
v 155.836716 59.082325 83.625862
v 130.592056 77.024231 26.357761
v 155.962814 83.049416 59.672108
v 123.865784 -5.705246 120.168030
v 136.579834 25.640999 131.660675
v 142.409332 72.471436 128.952896
v 144.504639 98.214561 78.659325
v 126.546242 115.422134 46.437138
v 89.858147 105.841644 21.411264
v 65.207481 93.824478 3.700582
v 48.516895 96.991386 16.204630
v 32.375771 102.638908 23.186441
v 17.353895 105.810226 33.036224
v -6.469113 99.496887 58.485176
v -6.410390 56.937401 100.616783
v -3.524151 30.625338 109.454941
v 21.126656 11.323632 140.084549
v 16.392229 28.018635 156.644882
v 59.975140 -9.351266 147.704758
v 92.696053 -14.566363 140.030945
v 104.959663 11.934251 160.353012
v 117.337166 54.333858 183.928375
v 65.700859 10.978333 172.351898
v 74.424057 39.428684 198.350693
v 19.779926 47.746265 185.521133
v 3.938267 89.562439 140.360657
v 0.978582 131.303574 91.313698
v 34.985748 152.697525 58.948196
v 54.299145 139.910294 42.310993
v 71.348129 125.159729 35.543690
v 101.631943 137.400269 52.080795
v 132.178665 128.497498 53.966393
v 118.203033 140.171463 54.481384
v 137.225677 125.082542 66.894966
v 114.445236 139.808838 75.467674
v 117.637360 142.625488 64.751221
v 90.439819 145.203613 62.265095
v 88.219910 149.851303 74.438850
v 129.669434 124.462143 75.242012
v 134.117889 112.945557 87.059631
v 111.486450 132.978226 85.065018
v 91.740517 147.206039 86.831947
v 53.339573 163.401413 94.107895
v 96.112602 143.870544 102.277504
v 79.329063 152.272751 120.820511
v 111.906052 124.923782 137.291580
v 113.002129 129.395050 106.878098
v 131.172928 106.194710 106.417786
v 103.146645 112.029716 172.520111
v 63.582901 143.658463 144.668274
v 25.266525 150.686569 120.355026
v 21.689096 118.212166 151.324509
v 51.363445 123.877777 171.570297
v 22.659950 101.540398 179.701859
v 39.934166 102.104660 195.138596
v 13.668406 84.232079 186.973038
v 81.905327 106.122589 190.149429
v 27.266251 60.250168 207.642914
v 68.759384 63.219059 214.856018
v 27.132013 86.213234 201.046967
v 33.415867 77.718987 213.663269
v 64.745956 103.488762 202.431625
v 90.462242 81.971992 203.376740
v 69.189362 92.113419 210.117508
v 53.405300 85.357071 216.149933
vt 0.359470 0.432780
vt 0.330920 0.442980
vt 0.305780 0.402040
vt 0.325130 0.386290
vt 0.384720 0.473290
vt 0.339430 0.472990
vt 0.378620 0.510730
vt 0.326020 0.505390
vt 0.366910 0.552520
vt 0.316820 0.542540
vt 0.366870 0.581810
vt 0.310930 0.569030
vt 0.349840 0.592420
vt 0.328260 0.588890
vt 0.345560 0.617850
vt 0.319780 0.617230
vt 0.372050 0.616140
vt 0.289630 0.603570
vt 0.817350 0.854230
vt 0.851730 0.868540
vt 0.829430 0.900540
vt 0.798030 0.881570
vt 0.789110 0.904320
vt 0.814600 0.925770
vt 0.776640 0.926650
vt 0.802670 0.948990
vt 0.412380 0.605940
vt 0.400180 0.576820
vt 0.400990 0.554620
vt 0.412590 0.521590
vt 0.415600 0.479540
vt 0.385220 0.427770
vt 0.346580 0.373590
vt 0.308580 0.445870
vt 0.294500 0.419670
vt 0.305910 0.463060
vt 0.285070 0.492000
vt 0.287020 0.527230
vt 0.431870 0.573160
vt 0.446460 0.589770
vt 0.431220 0.556770
vt 0.439840 0.531160
vt 0.443540 0.484260
vt 0.410230 0.419960
vt 0.371940 0.361800
vt 0.399190 0.345030
vt 0.432910 0.402010
vt 0.465430 0.471820
vt 0.467820 0.529220
vt 0.462080 0.556860
vt 0.468850 0.570650
vt 0.499560 0.592170
vt 0.282040 0.419100
vt 0.289030 0.377210
vt 0.307790 0.358710
vt 0.326170 0.338930
vt 0.352080 0.321380
vt 0.384680 0.307710
vt 0.491730 0.449120
vt 0.497750 0.501310
vt 0.458570 0.382490
vt 0.426580 0.333000
vt 0.414440 0.298770
vt 0.455050 0.294700
vt 0.466200 0.322630
vt 0.501240 0.284690
vt 0.511720 0.312460
vt 0.553300 0.296680
vt 0.544710 0.266280
vt 0.538200 0.354010
vt 0.575190 0.341290
vt 0.496820 0.368060
vt 0.597530 0.388650
vt 0.569380 0.407380
vt 0.531480 0.428800
vt 0.551660 0.488460
vt 0.594940 0.450480
vt 0.618270 0.415870
vt 0.483780 0.539160
vt 0.501830 0.528940
vt 0.533810 0.524980
vt 0.493320 0.558740
vt 0.518210 0.565710
vt 0.480320 0.552150
vt 0.585780 0.520560
vt 0.551800 0.535870
vt 0.544770 0.560680
vt 0.563780 0.574510
vt 0.766530 0.996810
vt 0.725280 0.987300
vt 0.745270 0.957330
vt 0.784420 0.978650
vt 0.643720 0.428630
vt 0.624860 0.470110
vt 0.550170 0.202610
vt 0.547120 0.229720
vt 0.505500 0.250010
vt 0.505430 0.214070
vt 0.497200 0.171740
vt 0.537020 0.163530
vt 0.480830 0.128410
vt 0.519860 0.131120
vt 0.473750 0.094360
vt 0.513460 0.106830
vt 0.531550 0.071610
vt 0.499780 0.048340
vt 0.457120 0.641550
vt 0.484870 0.707620
vt 0.464670 0.718690
vt 0.433180 0.670560
vt 0.491810 0.784190
vt 0.516270 0.775920
vt 0.512990 0.852920
vt 0.538980 0.848670
vt 0.567870 0.968000
vt 0.523710 0.950340
vt 0.520230 0.912600
vt 0.557490 0.912970
vt 0.639090 0.377290
vt 0.661470 0.387220
vt 0.476010 0.949840
vt 0.479160 0.916760
vt 0.546680 0.137350
vt 0.552390 0.124120
vt 0.570500 0.099530
vt 0.434880 0.738760
vt 0.404530 0.704670
vt 0.475860 0.859140
vt 0.457090 0.793270
vt 0.421500 0.810860
vt 0.407140 0.775800
vt 0.385880 0.754200
vt 0.561300 0.159290
vt 0.575080 0.199030
vt 0.578270 0.230120
vt 0.576240 0.253820
vt 0.583300 0.280460
vt 0.622090 0.355080
vt 0.602780 0.318700
vt 0.436510 0.859420
vt 0.439670 0.908180
vt 0.441210 0.933410
vt 0.672110 0.348020
vt 0.660640 0.333440
vt 0.589240 0.156950
vt 0.609240 0.139950
vt 0.595730 0.198380
vt 0.600020 0.228380
vt 0.601350 0.247780
vt 0.608670 0.269630
vt 0.625650 0.299500
vt 0.644940 0.320930
vt 0.425710 0.940230
vt 0.409250 0.904790
vt 0.401840 0.867390
vt 0.388850 0.833530
vt 0.387620 0.801790
vt 0.370670 0.792000
vt 0.617750 0.183300
vt 0.633720 0.183390
vt 0.614350 0.201170
vt 0.624010 0.221150
vt 0.619400 0.244070
vt 0.634160 0.256400
vt 0.648240 0.276030
vt 0.657140 0.290120
vt 0.674960 0.287770
vt 0.680940 0.247160
vt 0.663930 0.213590
vt 0.655460 0.184570
vt 0.286420 0.328290
vt 0.265110 0.357390
vt 0.313860 0.308860
vt 0.347310 0.288870
vt 0.377160 0.276570
vt 0.417810 0.265530
vt 0.457080 0.257730
vt 0.458260 0.221930
vt 0.451490 0.177220
vt 0.435640 0.130730
vt 0.432900 0.085960
vt 0.458710 0.027080
vt 0.486580 0.609340
vt 0.515950 0.687980
vt 0.548360 0.761290
vt 0.598550 0.912000
vt 0.625460 0.988630
vt 0.576060 0.838280
vt 0.663660 0.913580
vt 0.672260 0.974100
vt 0.713070 0.888980
vt 0.734990 0.868190
vt 0.755150 0.850760
vt 0.783930 0.827590
vt 0.399450 0.080310
vt 0.411270 0.004610
vt 0.534200 0.589450
vt 0.557230 0.675400
vt 0.590430 0.746650
vt 0.620590 0.825330
vt 0.661660 0.814270
vt 0.626460 0.734540
vt 0.596990 0.666090
vt 0.570810 0.575570
vt 0.369170 0.086040
vt 0.372750 0.003200
vt 0.397220 0.128240
vt 0.366960 0.136070
vt 0.413890 0.176700
vt 0.421760 0.223950
vt 0.377360 0.235530
vt 0.376470 0.182300
vt 0.340960 0.248190
vt 0.337590 0.194890
vt 0.342560 0.145000
vt 0.339310 0.093650
vt 0.333450 0.019820
vt 0.598130 0.549240
vt 0.631950 0.636630
vt 0.665540 0.713380
vt 0.688680 0.801090
vt 0.718490 0.805530
vt 0.735240 0.767990
vt 0.302650 0.265840
vt 0.260910 0.284630
vt 0.230580 0.320380
vt 0.247440 0.423000
vt 0.212430 0.366600
vt 0.295600 0.206470
vt 0.243300 0.226600
vt 0.179160 0.269820
vt 0.174380 0.359630
vt 0.175990 0.427460
vt 0.217240 0.496030
vt 0.259430 0.542940
vt 0.234300 0.568440
vt 0.859120 0.788470
vt 0.884020 0.808780
vt 0.834490 0.764690
vt 0.785360 0.716640
vt 0.710610 0.632480
vt 0.665270 0.607010
vt 0.632200 0.540160
vt 0.671550 0.522180
vt 0.295250 0.087160
vt 0.291980 0.012700
vt 0.300990 0.143490
vt 0.243830 0.155830
vt 0.168380 0.174620
vt 0.240500 0.090510
vt 0.242390 0.001950
vt 0.174550 0.102400
vt 0.172440 0.013290
vt 0.712260 0.478410
vt 0.770200 0.569710
vt 0.830310 0.655090
vt 0.894750 0.699620
vt 0.918130 0.734510
vt 0.941740 0.762870
vt 0.169920 0.520120
vt 0.129450 0.456940
vt 0.133220 0.431160
vt 0.152550 0.415710
vt 0.148850 0.394460
vt 0.070360 0.422020
vt 0.107290 0.399060
vt 0.119700 0.416710
vt 0.091150 0.444970
vt 0.135330 0.382760
vt 0.143020 0.357120
vt 0.100260 0.377550
vt 0.062550 0.391980
vt 0.998040 0.726880
vt 0.982420 0.702650
vt 0.981330 0.678300
vt 0.924110 0.642660
vt 0.988320 0.653590
vt 0.958790 0.590330
vt 0.994320 0.624450
vt 0.019200 0.315160
vt 0.085040 0.283630
vt 0.091460 0.337410
vt 0.059210 0.353680
vt 0.138380 0.324320
vt 0.085270 0.218330
vt 0.001950 0.256260
vt 0.873810 0.606090
vt 0.917560 0.550610
vt 0.828320 0.551100
vt 0.869630 0.507150
vt 0.805680 0.502720
vt 0.824830 0.469490
vt 0.773780 0.490910
vt 0.008980 0.183630
vt 0.072860 0.173460
vt 0.126080 0.101620
vt 0.122980 0.037150
vt 0.744830 0.443440
vt 0.787320 0.462110
vt 0.778350 0.436960
vt 0.033020 0.112620
vt 0.066940 0.137000
vt 0.113130 0.147650
vt 0.086230 0.125530
vt 0.084750 0.096280
vt 0.086510 0.062950
vt 0.051690 0.068890
vn 0.821049 0.406086 -0.401215
vn 0.854765 0.235794 -0.462362
vn 0.751634 0.043645 -0.658135
vn 0.788362 0.340764 -0.512215
vn 0.927568 0.227634 -0.296312
vn 0.909517 0.301056 -0.286609
vn 0.898574 0.334478 -0.284060
vn 0.837472 0.490816 -0.240291
vn 0.636552 0.694809 -0.334726
vn 0.624837 0.754134 -0.202141
vn 0.152121 0.898187 -0.412456
vn 0.328384 0.906514 -0.265322
vn -0.056072 0.974043 -0.219307
vn 0.038330 0.852674 -0.521035
vn 0.054829 0.897527 -0.437537
vn 0.152509 0.768981 -0.620813
vn -0.172302 0.807980 -0.563453
vn 0.237666 0.938154 -0.251758
vn -0.010140 0.967319 -0.253358
vn -0.253844 0.701285 -0.666155
vn -0.355280 0.572401 -0.739008
vn -0.506906 0.522196 -0.685827
vn -0.223497 0.598455 -0.769351
vn 0.113673 0.709047 -0.695938
vn 0.579333 0.515986 -0.630977
vn 0.817409 0.122438 -0.562896
vn 0.868175 0.028104 -0.495461
vn 0.824376 0.282569 -0.490469
vn 0.856942 0.326413 -0.398879
vn 0.775890 -0.141321 -0.614836
vn 0.685973 -0.250171 -0.683268
vn 0.721779 0.117399 -0.682094
vn 0.516557 0.469060 -0.716346
vn 0.470134 0.717776 -0.513588
vn -0.016507 0.403262 -0.914936
vn -0.257422 0.354695 -0.898847
vn 0.329763 0.308551 -0.892218
vn 0.595282 -0.046390 -0.802177
vn 0.737333 -0.158653 -0.656635
vn 0.792050 0.068820 -0.606564
vn 0.917217 0.082942 -0.389657
vn 0.912174 -0.213179 -0.349990
vn 0.748722 -0.084223 -0.657512
vn 0.642515 -0.174573 -0.746122
vn 0.466053 -0.197983 -0.862321
vn 0.108868 0.216554 -0.970181
vn -0.189408 0.423795 -0.885733
vn -0.499570 0.366912 -0.784733
vn 0.654466 -0.043999 -0.754810
vn 0.704956 -0.151624 -0.692854
vn 0.812159 -0.056678 -0.580677
vn 0.943467 0.020069 -0.330857
vn 0.983079 -0.155677 -0.096545
vn 0.919967 -0.391634 0.016850
vn 0.485076 -0.314946 -0.815789
vn 0.352040 -0.356329 -0.865504
vn 0.638093 -0.388431 -0.664799
vn 0.775355 -0.566473 -0.279165
vn 0.810889 -0.582987 -0.050839
vn 0.639011 -0.740385 -0.208553
vn 0.561031 -0.768625 -0.307343
vn 0.359601 -0.856268 -0.370800
vn 0.320971 -0.905863 -0.276389
vn 0.448841 -0.846340 -0.286795
vn 0.351412 -0.869876 -0.346157
vn 0.259281 -0.798696 -0.543009
vn 0.365281 -0.750408 -0.550871
vn 0.466040 -0.633154 -0.617999
vn 0.251763 -0.592295 -0.765377
vn 0.125980 -0.622773 -0.772193
vn 0.289379 -0.486581 -0.824317
vn 0.057114 -0.457447 -0.887401
vn -0.126713 -0.479790 -0.868185
vn -0.118154 -0.343262 -0.931778
vn 0.331692 -0.122536 -0.935396
vn 0.248335 -0.332185 -0.909936
vn 0.066242 -0.432335 -0.899277
vn -0.111520 0.344004 -0.932322
vn -0.383851 0.347455 -0.855531
vn 0.188557 0.301901 -0.934506
vn -0.535573 -0.200441 -0.820357
vn -0.449925 -0.351356 -0.821046
vn -0.703059 0.233673 -0.671644
vn -0.643124 0.149687 -0.750990
vn -0.539330 0.381830 -0.750553
vn -0.565316 -0.213126 -0.796866
vn -0.487982 -0.375730 -0.787846
vn 0.178231 -0.983769 -0.020780
vn 0.298122 -0.875932 -0.379297
vn 0.286818 -0.826001 -0.485239
vn 0.156790 -0.981536 -0.109561
vn -0.045453 -0.944319 0.325876
vn -0.019662 -0.954991 0.295983
vn -0.275201 -0.726349 0.629827
vn -0.204883 -0.786683 0.582369
vn -0.159528 -0.615793 0.771589
vn -0.066359 -0.677262 0.732743
vn -0.147342 -0.671441 0.726262
vn -0.158364 -0.660034 0.734354
vn -0.647342 -0.637257 0.418153
vn -0.640338 -0.651535 0.406779
vn -0.940175 -0.335337 -0.060165
vn -0.842135 -0.523473 -0.129555
vn -0.908646 -0.165951 -0.383174
vn -0.797514 -0.442546 -0.410030
vn -0.747181 -0.141589 -0.649364
vn -0.693688 -0.382103 -0.610569
vn 0.070417 -0.233101 -0.969900
vn -0.519030 -0.001019 -0.854755
vn -0.753026 0.068442 -0.654422
vn 0.333343 -0.724867 0.602868
vn 0.087846 -0.703680 0.705066
vn -0.224492 -0.691851 0.686255
vn -0.694580 -0.545550 0.468971
vn -0.940648 0.005442 -0.339342
vn -0.971262 -0.225284 0.076788
vn -0.728442 -0.684779 0.021243
vn -0.538706 -0.814043 0.217094
vn -0.252722 -0.900663 0.353467
vn 0.334074 -0.861098 0.383282
vn 0.503543 -0.800010 0.326234
vn 0.748566 -0.616950 0.242945
vn 0.854051 -0.515970 0.066122
vn 0.781386 -0.499598 -0.373948
vn 0.530780 -0.438245 -0.725406
vn 0.643684 -0.468085 -0.605448
vn -0.774966 -0.569171 -0.274722
vn -0.647459 -0.472040 -0.598310
vn -0.429009 -0.488803 -0.759620
vn -0.049074 -0.676766 -0.734561
vn 0.012059 -0.930443 0.366239
vn 0.198250 -0.910931 0.361803
vn 0.417699 -0.872693 0.252854
vn 0.581688 -0.810191 -0.072325
vn 0.488783 -0.706907 -0.511248
vn 0.416914 -0.674602 -0.609176
vn 0.313430 -0.708378 -0.632426
vn -0.349743 -0.808877 -0.472650
vn -0.462061 -0.867280 -0.185270
vn -0.448115 -0.893837 -0.015767
vn -0.455367 -0.884556 0.101002
vn -0.247391 -0.948913 0.195864
vn -0.098988 -0.940802 0.324179
vn -0.048274 -0.945311 0.322578
vn -0.191366 -0.980997 0.031992
vn -0.015688 -0.985013 -0.171763
vn -0.120645 -0.940542 -0.317532
vn -0.064697 -0.925037 -0.374326
vn -0.013704 -0.889793 -0.456159
vn 0.969368 -0.182406 -0.164479
vn 0.917463 -0.071285 -0.391381
vn 0.967647 -0.223921 -0.116271
vn 0.942947 -0.316282 -0.104002
vn 0.903202 -0.397205 -0.162647
vn 0.821547 -0.517013 -0.240330
vn 0.628051 -0.708389 -0.322082
vn 0.488484 -0.871330 0.046560
vn 0.225253 -0.848422 0.478999
vn -0.134021 -0.556033 0.820284
vn -0.074631 -0.251026 0.965099
vn -0.104851 -0.398980 0.910945
vn -0.680588 -0.388666 0.621078
vn -0.976917 -0.212633 -0.020508
vn -0.787977 -0.028349 -0.615052
vn -0.913206 -0.043581 -0.405162
vn -0.761227 0.198549 -0.617343
vn -0.737759 0.302204 -0.603643
vn -0.692857 0.225626 -0.684866
vn -0.613108 0.596562 -0.517892
vn -0.356626 0.928761 -0.101096
vn 0.035810 -0.052758 0.997965
vn -0.098785 -0.088598 0.991157
vn -0.688025 -0.048133 0.724089
vn -0.995870 0.078734 0.045218
vn -0.909830 0.161587 -0.382229
vn -0.908868 0.216161 -0.356698
vn -0.944912 0.278882 0.171366
vn -0.594362 0.274677 0.755835
vn -0.128745 0.040760 0.990840
vn -0.104676 -0.218574 0.970190
vn -0.083933 -0.195896 0.977026
vn 0.037853 -0.152784 0.987534
vn 0.430808 -0.625171 0.650819
vn 0.706905 -0.679416 0.196669
vn 0.840566 -0.453030 0.297007
vn 0.547594 -0.410608 0.729070
vn 0.883652 -0.340222 0.321573
vn 0.621127 -0.366915 0.692514
vn 0.192008 -0.524746 0.829322
vn -0.275662 -0.694781 0.664297
vn -0.368407 -0.437200 0.820446
vn -0.447093 0.283659 0.848319
vn -0.699159 0.528948 0.481030
vn -0.938034 0.273294 -0.213079
vn -0.829099 0.497598 -0.254933
vn -0.607887 0.751999 0.254896
vn 0.901711 -0.328701 0.280844
vn 0.950283 -0.174186 0.258111
vn 0.988677 0.077097 0.128741
vn 0.654667 0.343755 -0.673234
vn 0.923369 0.307950 -0.229253
vn 0.697208 -0.473748 0.538018
vn 0.842736 -0.303725 0.444463
vn 0.907101 0.142490 0.396060
vn 0.911057 0.411033 0.032042
vn 0.551612 0.500474 -0.667270
vn 0.288785 0.591737 -0.752629
vn 0.213322 0.812834 -0.542028
vn 0.093786 0.847953 -0.521709
vn -0.058296 0.868773 -0.491768
vn -0.458231 0.836874 -0.299442
vn -0.761042 0.636729 0.124062
vn -0.853060 0.281304 0.439496
vn -0.692091 0.064872 0.718889
vn -0.629831 -0.521012 0.576072
vn -0.788196 -0.386331 0.479056
vn -0.232721 -0.768814 0.595623
vn 0.305960 -0.698529 0.646874
vn 0.563890 -0.538932 0.625764
vn 0.768657 -0.105311 0.630932
vn -0.076586 -0.697325 0.712652
vn 0.109286 -0.615975 0.780148
vn -0.740879 -0.436658 0.510321
vn -0.958649 0.114499 0.260542
vn -0.882705 0.469836 0.009314
vn -0.443333 0.808526 -0.386966
vn -0.060018 0.707679 -0.703980
vn 0.102063 0.647099 -0.755544
vn 0.205482 0.673731 -0.709834
vn 0.299786 0.686708 -0.662239
vn 0.710179 0.341242 -0.615792
vn 0.934189 0.336904 -0.117413
vn 0.221373 0.943231 -0.247606
vn 0.465170 0.828302 0.312302
vn 0.409403 0.911954 -0.027006
vn 0.166521 0.868009 -0.467794
vn 0.650789 0.599861 0.465446
vn 0.780505 0.551252 0.294845
vn 0.619146 0.742027 0.257011
vn 0.382525 0.923051 -0.040655
vn -0.138503 0.990171 0.019470
vn 0.281563 0.905818 0.316569
vn 0.535357 0.840682 0.081525
vn 0.709693 0.587016 0.389549
vn 0.721437 0.669809 0.175741
vn 0.823042 0.519325 0.230008
vn 0.656331 0.537326 0.529633
vn 0.035808 0.856366 0.515126
vn -0.550190 0.776837 0.306291
vn -0.680939 0.582166 0.444302
vn -0.143144 0.804803 0.576022
vn -0.678239 0.620209 0.394122
vn -0.312292 0.750050 0.583008
vn -0.935799 0.098365 0.338534
vn 0.369513 0.665517 0.648496
vn 0.173949 -0.401282 0.899286
vn -0.545953 -0.474494 0.690500
vn -0.609502 0.459968 0.645707
vn -0.386867 0.124798 0.913652
vn 0.059729 0.754495 0.653582
vn 0.585485 0.132781 0.799735
vn 0.263283 0.433243 0.861964
vn -0.070300 0.236908 0.968985
s 1
g Asteroid_grand1
usemtl initialShadingGroup
f 1/1/1 2/2/2 3/3/3 4/4/4
f 1/1/1 5/5/5 6/6/6 2/2/2
f 6/6/6 5/5/5 7/7/7 8/8/8
f 10/9/9 9/10/10 8/8/8 7/7/7
f 9/10/10 10/9/9 11/11/11 12/12/12
f 12/12/12 11/11/11 13/13/13 14/14/14
f 13/13/13 15/15/15 16/16/16 14/14/14
f 11/11/11 17/17/17 15/15/15 13/13/13
f 18/18/18 12/12/12 14/14/14 16/16/16
f 20/19/19 18/20/18 16/21/16 19/22/20
f 21/23/21 19/22/20 16/21/16 15/24/15
f 22/25/22 21/23/21 15/24/15 17/26/17
f 24/27/23 17/17/17 11/11/11 23/28/24
f 23/28/24 11/11/11 10/9/9 25/29/25
f 26/30/26 25/29/25 10/9/9 7/7/7
f 7/7/7 5/5/5 27/31/27 26/30/26
f 28/32/28 27/31/27 5/5/5 1/1/1
f 29/33/29 28/32/28 1/1/1 4/4/4
f 31/34/30 30/35/31 3/3/3 2/2/2
f 6/6/6 32/36/32 31/34/30 2/2/2
f 33/37/33 32/36/32 6/6/6 8/8/8
f 34/38/34 33/37/33 8/8/8 9/10/10
f 24/27/23 23/28/24 35/39/35 36/40/36
f 35/39/35 23/28/24 25/29/25 37/41/37
f 37/41/37 25/29/25 26/30/26 38/42/38
f 39/43/39 38/42/38 26/30/26 27/31/27
f 27/31/27 28/32/28 40/44/40 39/43/39
f 41/45/41 40/44/40 28/32/28 29/33/29
f 43/46/42 42/47/43 40/44/40 41/45/41
f 39/43/39 40/44/40 42/47/43 44/48/44
f 38/42/38 39/43/39 44/48/44 45/49/45
f 38/42/38 45/49/45 46/50/46 37/41/37
f 37/41/37 46/50/46 47/51/47 35/39/35
f 35/39/35 47/51/47 48/52/48 36/40/36
f 3/3/3 30/35/31 49/53/49 50/54/50
f 4/4/4 3/3/3 50/54/50 51/55/51
f 29/33/29 4/4/4 51/55/51 52/56/52
f 29/33/29 52/56/52 53/57/53 41/45/41
f 53/57/53 54/58/54 43/46/42 41/45/41
f 56/59/55 55/60/56 45/49/45 44/48/44
f 44/48/44 42/47/43 57/61/57 56/59/55
f 58/62/58 57/61/57 42/47/43 43/46/42
f 59/63/59 58/62/58 43/46/42 54/58/54
f 59/63/59 60/64/60 61/65/61 58/62/58
f 60/64/60 62/66/62 63/67/63 61/65/61
f 65/68/64 63/67/63 62/66/62 64/69/65
f 67/70/66 63/67/63 65/68/64 66/71/67
f 61/65/61 68/72/68 57/61/57 58/62/58
f 67/70/66 68/72/68 61/65/61 63/67/63
f 66/71/67 69/73/69 70/74/70 67/70/66
f 67/70/66 70/74/70 71/75/71 68/72/68
f 68/72/68 71/75/71 56/59/55 57/61/57
f 55/60/56 56/59/55 71/75/71 72/76/72
f 72/76/72 71/75/71 70/74/70 73/77/73
f 69/73/69 74/78/74 73/77/73 70/74/70
f 76/79/75 45/49/45 55/60/56 75/80/76
f 77/81/77 75/80/76 55/60/56 72/76/72
f 47/51/47 78/82/78 79/83/79 48/52/48
f 78/82/78 47/51/47 46/50/46 80/84/80
f 80/84/80 46/50/46 45/49/45 76/79/75
f 80/84/80 76/79/75 75/80/76 78/82/78
f 78/82/78 75/80/76 77/81/77 79/83/79
f 82/85/81 81/86/82 77/81/77 72/76/72
f 81/86/82 83/87/83 79/83/79 77/81/77
f 82/85/81 84/88/84 83/87/83 81/86/82
f 79/83/79 83/87/83 84/88/84 48/52/48
f 36/89/36 48/90/48 85/91/85 24/92/23
f 85/91/85 22/25/22 17/26/17 24/92/23
f 73/77/73 74/78/74 86/93/86 87/94/87
f 87/94/87 82/85/81 72/76/72 73/77/73
f 89/95/88 106/96/89 107/97/90 88/98/91
f 89/95/88 88/98/91 90/99/92 91/100/93
f 91/100/93 90/99/92 92/101/94 93/102/95
f 93/102/95 92/101/94 94/103/96 95/104/97
f 97/105/98 95/104/97 94/103/96 96/106/99
f 96/107/99 98/108/100 99/109/101 97/110/98
f 101/111/102 99/109/101 98/108/100 100/112/103
f 103/113/104 101/111/102 100/112/103 102/114/105
f 87/115/87 86/116/86 104/117/106 105/118/107
f 102/114/105 105/118/107 104/117/106 103/113/104
f 107/97/90 106/96/89 64/69/65 62/66/62
f 74/78/74 108/119/108 109/120/109 86/93/86
f 86/116/86 109/121/109 110/122/110 104/117/106
f 112/123/111 93/102/95 95/104/97 111/124/112
f 95/104/97 97/105/98 113/125/113 111/124/112
f 99/109/101 114/126/114 113/127/113 97/110/98
f 103/113/104 104/117/106 110/122/110 115/128/115
f 101/111/102 103/113/104 115/128/115 116/129/116
f 99/109/101 101/111/102 116/129/116 114/126/114
f 118/130/117 117/131/118 114/126/114 116/129/116
f 119/132/119 113/127/113 114/126/114 117/131/118
f 91/100/93 93/102/95 112/123/111 120/133/120
f 120/133/120 121/134/121 89/95/88 91/100/93
f 106/96/89 89/95/88 121/134/121 122/135/122
f 106/96/89 122/135/122 123/136/123 64/69/65
f 64/69/65 123/136/123 124/137/124 65/68/64
f 108/119/108 74/78/74 69/73/69 125/138/125
f 69/73/69 66/71/67 126/139/126 125/138/125
f 66/71/67 65/68/64 124/137/124 126/139/126
f 127/140/127 118/130/117 116/129/116 115/128/115
f 128/141/128 127/140/127 115/128/115 110/122/110
f 109/121/109 129/142/129 128/141/128 110/122/110
f 129/143/129 109/120/109 108/119/108 130/144/130
f 120/133/120 112/123/111 111/124/112 131/145/131
f 113/125/113 119/146/119 131/145/131 111/124/112
f 121/134/121 120/133/120 131/145/131 132/147/132
f 122/135/122 121/134/121 132/147/132 133/148/133
f 122/135/122 133/148/133 134/149/134 123/136/123
f 123/136/123 134/149/134 135/150/135 124/137/124
f 126/139/126 124/137/124 135/150/135 136/151/136
f 137/152/137 125/138/125 126/139/126 136/151/136
f 125/138/125 137/152/137 130/144/130 108/119/108
f 128/141/128 129/142/129 130/153/130 138/154/138
f 127/140/127 128/141/128 138/154/138 139/155/139
f 118/130/117 127/140/127 139/155/139 140/156/140
f 118/130/117 140/156/140 141/157/141 117/131/118
f 117/131/118 141/157/141 142/158/142 119/132/119
f 143/159/143 131/145/131 119/146/119 142/160/142
f 131/145/131 143/159/143 144/161/144 132/147/132
f 144/161/144 145/162/145 133/148/133 132/147/132
f 133/148/133 145/162/145 146/163/146 134/149/134
f 134/149/134 146/163/146 147/164/147 135/150/135
f 136/151/136 135/150/135 147/164/147 148/165/148
f 136/151/136 148/165/148 149/166/149 137/152/137
f 137/152/137 149/166/149 138/167/138 130/144/130
f 138/167/138 149/166/149 148/165/148 139/168/139
f 139/168/139 148/165/148 147/164/147 140/169/140
f 144/161/144 143/159/143 142/160/142 145/162/145
f 140/169/140 145/162/145 142/160/142 141/170/141
f 145/162/145 140/169/140 147/164/147 146/163/146
f 151/171/150 51/55/51 50/54/50 150/172/151
f 51/55/51 151/171/150 152/173/152 52/56/52
f 53/57/53 52/56/52 152/173/152 153/174/153
f 153/174/153 154/175/154 54/58/54 53/57/53
f 154/175/154 155/176/155 59/63/59 54/58/54
f 60/64/60 59/63/59 155/176/155 156/177/156
f 62/66/62 60/64/60 156/177/156 107/97/90
f 157/178/157 88/98/91 107/97/90 156/177/156
f 88/98/91 157/178/157 158/179/158 90/99/92
f 158/179/158 159/180/159 92/101/94 90/99/92
f 160/181/160 94/103/96 92/101/94 159/180/159
f 160/181/160 161/182/161 96/106/99 94/103/96
f 98/108/100 96/107/99 161/183/161 162/184/162
f 100/112/103 98/108/100 162/184/162 163/185/163
f 87/115/87 105/118/107 164/186/164 82/187/81
f 165/188/165 164/186/164 105/118/107 102/114/105
f 163/185/163 165/188/165 102/114/105 100/112/103
f 166/189/166 84/190/84 82/187/81 164/186/164
f 48/90/48 84/190/84 166/189/166 85/91/85
f 85/91/85 166/189/166 167/191/167 22/25/22
f 168/192/168 21/23/21 22/25/22 167/191/167
f 169/193/169 19/22/20 21/23/21 168/192/168
f 170/194/170 20/19/19 19/22/20 169/193/169
f 161/182/161 160/181/160 171/195/171 172/196/172
f 162/184/162 161/183/161 172/197/172 173/198/173
f 163/185/163 162/184/162 173/198/173 174/199/174
f 165/188/165 163/185/163 174/199/174 175/200/175
f 164/186/164 165/188/165 175/200/175 166/189/166
f 176/201/176 167/191/167 166/189/166 175/200/175
f 175/200/175 174/199/174 177/202/177 176/201/176
f 178/203/178 177/202/177 174/199/174 173/198/173
f 179/204/179 178/203/178 173/198/173 172/197/172
f 172/196/172 171/195/171 180/205/180 179/206/179
f 181/207/181 171/195/171 160/181/160 159/180/159
f 171/195/171 181/207/181 182/208/182 180/205/180
f 159/180/159 158/179/158 183/209/183 181/207/181
f 158/179/158 157/178/157 184/210/184 183/209/183
f 155/176/155 184/210/184 157/178/157 156/177/156
f 185/211/185 184/210/184 155/176/155 154/175/154
f 185/211/185 186/212/186 183/209/183 184/210/184
f 186/212/186 182/208/182 181/207/181 183/209/183
f 154/175/154 153/174/153 187/213/187 185/211/185
f 187/213/187 188/214/188 186/212/186 185/211/185
f 188/214/188 189/215/189 182/208/182 186/212/186
f 189/215/189 190/216/190 180/205/180 182/208/182
f 190/216/190 191/217/191 179/206/179 180/205/180
f 191/218/191 192/219/192 178/203/178 179/204/179
f 192/219/192 193/220/193 177/202/177 178/203/178
f 193/220/193 194/221/194 176/201/176 177/202/177
f 194/221/194 168/192/168 167/191/167 176/201/176
f 168/192/168 194/221/194 195/222/195 169/193/169
f 196/223/196 170/194/170 169/193/169 195/222/195
f 194/221/194 193/220/193 196/223/196 195/222/195
f 197/224/197 187/213/187 153/174/153 152/173/152
f 197/224/197 152/173/152 151/171/150 198/225/198
f 150/172/151 199/226/199 198/225/198 151/171/150
f 30/35/31 31/34/30 32/36/32 49/53/49
f 33/37/33 200/227/200 49/53/49 32/36/32
f 50/54/50 49/53/49 200/227/200 150/172/151
f 200/227/200 201/228/201 199/226/199 150/172/151
f 188/214/188 187/213/187 197/224/197 202/229/202
f 202/229/202 197/224/197 198/225/198 203/230/203
f 203/230/203 198/225/198 199/226/199 204/231/204
f 201/228/201 205/232/205 204/231/204 199/226/199
f 205/232/205 201/228/201 200/227/200 206/233/206
f 33/37/33 207/234/207 206/233/206 200/227/200
f 34/38/34 208/235/208 207/234/207 33/37/33
f 208/235/208 34/38/34 9/10/10 12/12/12
f 208/235/208 12/12/12 18/18/18 209/236/209
f 20/19/19 210/237/210 209/238/209 18/20/18
f 170/194/170 211/239/211 210/237/210 20/19/19
f 196/223/196 212/240/212 211/239/211 170/194/170
f 213/241/213 212/240/212 196/223/196 193/220/193
f 192/219/192 214/242/214 213/241/213 193/220/193
f 214/242/214 215/243/215 216/244/216 213/241/213
f 215/243/215 214/242/214 192/219/192 191/218/191
f 217/245/217 215/246/215 191/217/191 190/216/190
f 189/215/189 218/247/218 217/245/217 190/216/190
f 202/229/202 218/247/218 189/215/189 188/214/188
f 218/247/218 202/229/202 203/230/203 219/248/219
f 204/231/204 220/249/220 219/248/219 203/230/203
f 215/246/215 217/245/217 221/250/221 216/251/216
f 221/250/221 217/245/217 218/247/218 219/248/219
f 222/252/222 221/250/221 219/248/219 220/249/220
f 216/251/216 221/250/221 222/252/222 223/253/223
f 213/241/213 216/244/216 223/254/223 224/255/224
f 212/240/212 213/241/213 224/255/224 225/256/225
f 226/257/226 211/239/211 212/240/212 225/256/225
f 211/239/211 226/257/226 227/258/227 210/237/210
f 228/259/228 209/238/209 210/237/210 227/258/227
f 209/236/209 228/260/228 207/234/207 208/235/208
f 228/260/228 229/261/229 206/233/206 207/234/207
f 231/262/230 230/263/231 206/233/206 229/261/229
f 232/264/232 205/232/205 206/233/206 230/263/231
f 236/265/233 233/266/234 234/267/235 235/268/236
f 231/262/230 229/261/229 235/268/236 234/267/235
f 230/263/231 231/262/230 234/267/235 232/264/232
f 233/266/234 237/269/237 232/264/232 234/267/235
f 237/269/237 238/270/238 205/232/205 232/264/232
f 237/269/237 233/266/234 239/271/239 238/270/238
f 240/272/240 239/271/239 233/266/234 236/265/233
f 229/273/229 228/259/228 227/258/227 235/274/236
f 235/274/236 227/258/227 226/257/226 236/275/233
f 236/275/233 226/257/226 241/276/241 240/277/240
f 243/278/242 242/279/243 240/277/240 241/276/241
f 243/280/242 244/281/244 245/282/245 242/283/243
f 245/282/245 239/271/239 240/272/240 242/283/243
f 245/282/245 246/284/246 238/270/238 239/271/239
f 204/231/204 205/232/205 238/270/238 246/284/246
f 204/231/204 246/284/246 245/282/245 244/281/244
f 204/231/204 244/281/244 247/285/247 220/249/220
f 244/281/244 243/280/242 248/286/248 247/285/247
f 243/278/242 241/276/241 249/287/249 248/288/248
f 241/276/241 226/257/226 225/256/225 249/287/249
f 225/256/225 224/255/224 250/289/250 249/287/249
f 250/289/250 251/290/251 248/288/248 249/287/249
f 250/289/250 252/291/252 253/292/253 251/290/251
f 252/291/252 250/289/250 224/255/224 254/293/254
f 251/294/251 255/295/255 247/285/247 248/286/248
f 257/296/256 256/297/257 223/253/223 222/252/222
f 254/293/254 224/255/224 223/254/223 256/298/257
f 252/291/252 254/293/254 258/299/258 253/292/253
f 259/300/259 258/299/258 254/293/254 256/298/257
f 253/301/253 260/302/260 255/295/255 251/294/251
f 220/249/220 247/285/247 255/295/255 261/303/261
f 222/252/222 220/249/220 261/303/261 257/296/256
f 255/295/255 260/302/260 262/304/262 261/303/261
f 261/303/261 262/304/262 263/305/263 257/296/256
f 263/305/263 259/306/259 256/297/257 257/296/256
f 258/307/258 259/306/259 263/305/263 253/301/253
f 262/304/262 260/302/260 253/301/253 263/305/263
